<?xml version="1.0" encoding="utf-8"?>
<!-- Generator: Adobe Illustrator 22.1.0, SVG Export Plug-In . SVG Version: 6.00 Build 0)  -->
<svg version="1.1" id="Layer_1" xmlns="http://www.w3.org/2000/svg" xmlns:xlink="http://www.w3.org/1999/xlink" x="0px" y="0px"
	 viewBox="0 0 70 70" style="enable-background:new 0 0 70 70;" xml:space="preserve">
<path d="M38.7,11.5c3.1,0,6.1,0,9.2,0c0,2.3,0,4.7,0,7c-0.1,1.1-0.1,2.1-0.2,3.2c-0.2,0-0.4,0-0.5,0c-1.2,0-2.3,0-3.5,0
	c-2,0-3.7,0.8-4.7,2.7c-0.7,1.3-0.4,2.8-0.5,4.2c3.1,0,6.1,0,9.1,0c0,3.1,0,6.1,0,9.1c-3,0-6,0-9.1,0c0,8.4,0,16.7,0,25
	c-3.7,0-7.4,0-11.1,0c0-8.3,0-16.7,0-25c-3.2,0-6.3,0-9.4,0c0-3,0-6.1,0-9.1c3.1,0,6.2,0,9.3,0c0-0.4,0-0.6,0-0.9c0-2.1,0-4.1,0-6.2
	c0-2.2,0.7-4.3,2.2-5.9c1.6-1.8,3.7-2.9,6-3.5C36.6,11.8,37.7,11.7,38.7,11.5z M45.6,13.8c-2,0-3.9,0-5.9,0c-1.6,0-3.2,0.3-4.8,0.9
	c-3.1,1.2-5.3,3.5-5.3,7.4c0,2.7,0,5.5,0,8.2c0,0.2,0,0.4,0,0.6c-3.1,0-6.2,0-9.3,0c0,1.5,0,3,0,4.6c3.1,0,6.2,0,9.4,0
	c0,8.4,0,16.7,0,25c2.2,0,4.3,0,6.5,0c0-8.3,0-16.7,0-25c3,0,6.1,0,9.1,0c0-1.5,0-3,0-4.6c-3,0-6,0-9,0c0-0.2,0-0.3,0-0.4
	c0-1.4,0-2.8,0-4.3c0-0.7,0.2-1.5,0.4-2.1c0.9-2.6,3.5-4.5,6.3-4.5c0.8,0,1.6,0,2.5,0C45.6,17.6,45.6,15.7,45.6,13.8z"/>
<g>
	<g>
		<path d="M35,0C15.7,0,0,15.7,0,35s15.6,35,35,35s35-15.6,35-35S54.3,0,35,0z M35.1,66.7C17.6,66.7,3.4,52.5,3.4,35
			S17.6,3.3,35.1,3.3S66.7,17.5,66.7,35S52.6,66.7,35.1,66.7z"/>
	</g>
</g>
</svg>
