<?xml version="1.0" encoding="utf-8"?>
<!-- Generator: Adobe Illustrator 22.1.0, SVG Export Plug-In . SVG Version: 6.00 Build 0)  -->
<svg version="1.1" id="Layer_1" xmlns="http://www.w3.org/2000/svg" xmlns:xlink="http://www.w3.org/1999/xlink" x="0px" y="0px"
	 viewBox="0 0 70 70" style="enable-background:new 0 0 70 70;" xml:space="preserve">
<style type="text/css">
	.st0{fill:none;stroke:#000000;stroke-width:3;stroke-miterlimit:10;}
	.st1{display:none;fill:#010101;}
	.st2{fill:#010101;}
</style>
<circle class="st0" cx="35" cy="35" r="33.1"/>
<path class="st1" d="M28.1,53.1c-4.1,0-8.2-1.1-11.9-3.3l-2.6-1.5l3,0.1c0.1,0,0.3,0,0.5,0c1.1,0,4.8-0.2,8.5-2.3
	c-2.8-0.8-5.1-3-6.1-5.8l-0.5-1.4l1.3,0.3c-2.1-1.6-3.4-4-3.6-6.7L16.8,31l1.2,0.5c0.2,0.1,0.4,0.2,0.7,0.3c-1.7-2.4-2.7-6-0.6-9.9
	l0.6-1.1l0.7,1c3.6,4.6,8.9,7.5,14.7,7.9c0-0.4-0.1-0.7-0.1-0.8c0-4.3,3.3-8.8,8.8-8.8c2.3,0,4.5,0.9,6.2,2.5
	c2.2-0.5,4.3-1.8,4.3-1.8l1.9-1.2l-0.7,2.1c-0.3,1-0.9,1.9-1.5,2.8c0.4-0.1,0.7-0.3,1.1-0.4l2.3-1.1l-1,2.1c-0.8,1.7-2.1,3.1-3.7,4
	c0.4,5.6-2,11.9-6.1,16.5c-3.1,3.4-8.6,7.5-17.3,7.6L28.1,53.1z M19.7,49.7c2.7,1.2,5.6,1.8,8.4,1.8l0.1,0c8.1-0.1,13.2-3.9,16.1-7
	c4-4.4,6.2-10.5,5.7-15.8L49.9,28l0.5-0.2c0.8-0.4,1.5-0.9,2.2-1.6c-0.7,0.2-1.4,0.3-2.3,0.4l-0.6,0.1l-0.5-1.2l0.6-0.4
	c0.8-0.5,1.5-1.1,2-1.8c-0.9,0.4-1.9,0.7-2.9,0.9l-0.4,0.1L48.1,24c-1.4-1.5-3.3-2.3-5.3-2.3c-4.5,0-7.2,3.6-7.2,7.2
	c0,0.2,0.1,1.2,0.1,1.4l0.4,1l-1.2,0c-6.2-0.1-12-2.9-16.1-7.5c-1.6,4.2,1.1,7.6,2.4,8.6l1.9,1.5l-2.4,0c-0.7,0-1.5-0.1-2.2-0.3
	c0.6,2.8,2.9,5.1,5.8,5.7l3.2,0.7l-3.1,0.9c-0.5,0.2-1.2,0.2-1.8,0.2c-0.3,0-0.6,0-0.9,0c1.3,2.2,3.6,3.7,6.2,3.8l2.3,0.1l-1.8,1.3
	C25.2,48.5,22,49.4,19.7,49.7z"/>
<path class="st2" d="M29.3,34.9h13.5V37c0,7.4-6.1,13.5-13.5,13.5S15.8,44.4,15.8,37s6.1-13.5,13.5-13.5c3,0,5.8,1,8.2,2.8L35,29.6
	c-1.6-1.3-3.6-1.9-5.7-1.9c-5.1,0-9.3,4.2-9.3,9.3s4.2,9.3,9.3,9.3c4.4,0,8.1-3.1,9-7.2h-9V34.9z M51.5,27.9h3.7v4.2h-3.7v3.7h-4.2
	v-3.7h-3.7v-4.2h3.7v-3.7h4.2V27.9z"/>
</svg>
