<?xml version="1.0" encoding="iso-8859-1"?>
<!-- Generator: Adobe Illustrator 18.1.1, SVG Export Plug-In . SVG Version: 6.00 Build 0)  -->
<svg version="1.1" id="Capa_1" xmlns="http://www.w3.org/2000/svg" xmlns:xlink="http://www.w3.org/1999/xlink" x="0px" y="0px"
	 viewBox="0 0 470.571 470.571" style="enable-background:new 0 0 470.571 470.571;" xml:space="preserve">
<g>
	<g>
		<path style="fill:#010002;" d="M176.993,129.635l-4.625,40.228l15.322,15.306l8.698-63.874l0,0
			c-0.276-2.544,0.821-5.219,3.934-7.568c27.223-20.541,49.503-18.753,80.798-4.747c24.142,10.803,43.415,6.763,67.589-0.959
			c18.614-5.95,36.392-0.463,52.608,6.665c7.299,3.211,7.812,9.039,4.698,13.42l1.813,1.813L300.637,237.111l-2.943-3.121
			l-54.177,6.958l17.802,17.785l40.797-4.097l129.578-129.569L306.619,0L176.993,129.635z"/>
		<polygon style="fill:#010002;" points="241.201,258.415 173.262,190.485 168.759,194.988 164.353,199.386 156.176,191.208 
			104.283,243.109 188.568,327.403 240.469,275.502 232.292,267.324 236.73,262.894 		"/>
		<polygon style="fill:#010002;" points="68.306,351.211 80.466,363.38 173.424,326.2 105.486,258.261 		"/>
		<path style="fill:#010002;" d="M73.256,470.571c77.352,0,0-105.623,0-105.623S-4.095,470.571,73.256,470.571z M91.171,439.26
			c-2.219,3.577-6.633,5.592-14.648,4.674c-19.476-2.235-18.484-16.566-13.176-29.71c1.26-3.121,2.731-6.145,4.267-8.958
			c2.154-3.926,4.324-7.364,6.007-9.836c0.268-0.39,0.496-0.715,0.732-1.057c1.284-1.845,2.17-3.016,2.17-3.016
			s15.314,23.5,16.379,39.147C93.139,433.928,92.626,436.927,91.171,439.26z"/>
	</g>
</g>
<g>
</g>
<g>
</g>
<g>
</g>
<g>
</g>
<g>
</g>
<g>
</g>
<g>
</g>
<g>
</g>
<g>
</g>
<g>
</g>
<g>
</g>
<g>
</g>
<g>
</g>
<g>
</g>
<g>
</g>
</svg>
