<?xml version="1.0" encoding="utf-8"?>
<!-- Generator: Adobe Illustrator 22.1.0, SVG Export Plug-In . SVG Version: 6.00 Build 0)  -->
<svg version="1.1" id="Layer_1" xmlns="http://www.w3.org/2000/svg" xmlns:xlink="http://www.w3.org/1999/xlink" x="0px" y="0px"
	 viewBox="0 0 70 70" style="enable-background:new 0 0 70 70;" xml:space="preserve">
<g>
	<g>
		<path d="M35,0c-19.3,0-35,15.6-35,35s15.6,35,35,35s35-15.6,35-35S54.4,0,35,0z M35.1,66.6c-17.5,0-31.7-14.2-31.7-31.7
			S17.6,3.3,35.1,3.3s31.7,14.2,31.7,31.7S52.6,66.6,35.1,66.6z"/>
	</g>
</g>
<path id="YouTube" d="M47,43.7h-2.3v-1.3c0-0.6,0.5-1.1,1.1-1.1H46c0.6,0,1.1,0.5,1.1,1.1L47,43.7z M38.5,40.8
	c-0.6,0-1.1,0.4-1.1,0.9v6.4c0,0.5,0.5,0.9,1.1,0.9s1.1-0.4,1.1-0.9v-6.4C39.5,41.2,39.1,40.8,38.5,40.8z M52.4,37.2v12.3
	c0,2.9-2.6,5.3-5.7,5.3H23.4c-3.1,0-5.7-2.4-5.7-5.3V37.2c0-2.9,2.5-5.3,5.7-5.3h23.3C49.8,31.9,52.4,34.3,52.4,37.2z M25,50.8V37.9
	h2.9V36h-7.7v1.9h2.4v13H25V50.8z M33.6,39.8h-2.4v6.9c0,1,0.1,1.5,0,1.7c-0.2,0.5-1.1,1.1-1.4,0.1c-0.1-0.2,0-0.7,0-1.7v-6.9h-2.4
	v6.8c0,1,0,1.8,0,2.2c0.1,0.6,0,1.4,0.6,1.8c1.1,0.8,3.2-0.1,3.7-1.2v1.4h1.9L33.6,39.8L33.6,39.8z M41.3,47.7V42
	c0-2.2-1.6-3.5-3.9-1.7V36H35v14.7h2l0.2-0.9C39.7,52.1,41.3,50.5,41.3,47.7z M48.9,47h-1.8c0,0.1,0,0.2,0,0.2v1c0,0.5-0.4,1-1,1
	h-0.4c-0.5,0-1-0.4-1-1v-0.1V47v-1.4h4.1V44c0-1.1,0-2.3-0.1-2.9c-0.3-2.1-3.2-2.4-4.6-1.3c-0.5,0.3-0.8,0.8-1,1.4
	c-0.2,0.6-0.3,1.4-0.3,2.4V47C42.8,52.7,49.7,51.8,48.9,47z M39.6,28.4c0.1,0.3,0.3,0.5,0.6,0.7s0.6,0.3,1,0.3
	c0.3,0,0.7-0.1,0.9-0.3c0.3-0.2,0.5-0.5,0.7-0.9v0.9h2.7V17.8h-2.1v8.9c0,0.5-0.4,0.9-0.9,0.9s-0.9-0.4-0.9-0.9v-8.9h-2.2v7.7
	c0,1,0,1.6,0,2C39.4,27.7,39.5,28.1,39.6,28.4z M31.5,21.9c0-1.1,0.1-2,0.3-2.6c0.2-0.6,0.5-1.1,1-1.5s1.1-0.6,1.8-0.6
	c0.6,0,1.2,0.1,1.6,0.4c0.4,0.2,0.8,0.6,1,0.9c0.2,0.4,0.4,0.8,0.5,1.2c0.1,0.4,0.1,1,0.1,1.9v2.9c0,1.1,0,1.8-0.1,2.3
	s-0.3,1-0.5,1.4c-0.3,0.4-0.6,0.7-1,0.9c-0.4,0.2-0.9,0.3-1.5,0.3s-1.1-0.1-1.6-0.3c-0.4-0.2-0.8-0.4-1-0.8s-0.4-0.8-0.5-1.3
	s-0.1-1.3-0.1-2.3L31.5,21.9L31.5,21.9z M33.6,26.5c0,0.6,0.5,1.2,1.1,1.2s1.1-0.5,1.1-1.2v-6.1c0-0.6-0.5-1.2-1.1-1.2
	s-1.1,0.5-1.1,1.2V26.5z M26.1,29.5h2.5v-8.8l3-7.5h-2.8l-1.6,5.6l-1.6-5.6h-2.7l3.2,7.5V29.5z"/>
</svg>
